98 129
00000000000000000000000000000000000000077700000000000000000000000000000000000000000000000000000000
00000000000000000000000000000000000000777770000000000000000000000000000000000000000000000000000000
00000000000000000000000000000000000007777777000000000000000000000000000000000000000000000000000000
00000000000000000000000000000000000077777777700000000000000000000000000000000000000000000000000000
00000000000000000000000000000000000777777777770000000000000000000000000000000000000000000000000000
00000000000000000000000000000000007777777777777000000000000000000000000000000000000000000000000000
00000000000000000000000000000000077777777777777700000000000000000000000000000000000000000000000000
00000000000000000000000000000000777777777777777770000000000000000000000000000000000000000000000000
00000000000000000000000000000007777777777777777777000000000000000000000000000000000000000000000000
00000000000000000000000000000077777777777777777777700000000000000000000000000000000000000000000000
00000000000000000000000000000777777777777777777777770000000000000000000000000000000000000000000000
00000000000000000000000000007777777777777777777777777000000000000000000000000000000000000000000000
00000000000000000000000000077777777777777777777777777700000000000000000000000000000000000000000000
00000000000000000000000000777777777777777777777777777770000000000000000000000000000000000000000000
00000000000000000000000007777777777777777777777777777777000000000000000000000000000000000000000000
00000000000000000000000077777777777777777777777777777777700000000000000000000000000000000000000000
00000000000000000000000777777777777777777777777777777777770000000000000000000000000000000000000000
00000000000000000000007777777777777777777777777777777777777000000000000000000000000000000000000000
00000000000000000000077777777777777777777777777777777777777700000000000000000000000000000000000000
00000000000000000000777777777777777777777777777777777777777770000000000000000000000000000000000000
00000000000000000007777777777777777777777777777777777777777777000000000000000000000000000000000000
00000000000000000077777777777777777777777777777777777777777777700000000000000000000000000000000000
00000000000000000777777777777777777777777777777777777777777777770000000000000000000000000000000000
00000000000000007777777777777777777777777777777777777777777777777000000000000000000000000000000000
00000000000000077777777777777777777777777777777777777777777777777700000000000000000000000000000000
00000000000000777777777777777777777777777777777777777777777777777770000000000000000000000000000000
00000000000007777777777777777777777777777777777777777777777777777777000000000000000000000000000000
00000000000077777777777777777777777777777777777777777777777777777777700000000000000000000000000000
00000000000777777777777777777777777777777777777777777777777777777777770000000000000000000000000000
00000000007777777777777777777777777777777777777777777777777777777777777000000000000000000000000000
00000000077777777777777777777777777777777777777777777777777777777777777700000000000000000000000000
00000000777777777777777777777777777777777777777777777777777777777777777770000000000000000000000000
00000007777777777777777777777777777777777777777777777777777777777777777777000000000000000000000000
00000077777777777777777777777777777777777777777777777777777777777777777777700000000000000000000000
00000777777777777777777777777777777777777777777777777777777777777777777777770000000000000000000000
00007777777777777777777777777777777777777777777777777777777777777777777777777000000000000000000000
00077777777777777777777777777777777777777777777777777777777777777777777777777700000000000000000000
00777777777777777777777777777777777777777777777777777777777777777777777777777770000000000000000000
07777777777777777777777777777777777777777777777777777777777777777777777777777777000000000000000000
77777777777777777777777777777777777777777777777777777777777777777777777777777777700000000000000000
77777777777777777777777777777777777777777777777777777777777777777777777777777777770000000000000000
77777777777777777777777777777777777777777777777777777777777777777777777777777777777000000000000000
77777777777777777777777777777777777777777777777777777777777777777777777777777777777700000000000000
77777777777777777777777777777777777777777777777777777777777777777777777777777777777770000000000000
77777777777777777777777777777777777777777777777777777777777777777777777777777777777777000000000000
77777777777777777777777777777777777777777777777777777777777777777777777777777777777777700000000000
77777777777777777777777777777777777777777777777777777777777777777777777777777777777777770000000000
77777777777777777777777777777777777777777777777777777777777777777777777777777777777777777000000000
77777777777777777777777777777777777777777777777777777777777777777777777777777777777777777700000000
77777777777777777777777777777777777777777777777777777777777777777777777777777777777777777770000000
77777777777777777777777777777777777777777777777777777777777777777777777777777777777777777777000000
77777777777777777777777777777777777777777777777777777777777777777777777777777777777777777777700000
77770000000777777777777777777777777077777777777777777777777777777777777777777777777777777777770000
77700000000007777777777777777777700077777777777777777777777777777777777777777777777777777777777000
77700000000007777777777777777777000077777777777777777777777777777777777777777777777777777777777700
77000000000000777777777777777777000077777777777777777777777777777777777777777777777777777777777770
00000000000000000007777777770000000777777777777777777777777777777777777777777777777777777777777777
00000000000000000000077777770000077777777777777777777777777777777777777777777777777777777777777770
00000000000000000000077770000000777777777777777777777777777777777777777777777777777777777777777700
00000006600000000000007770000000777777777777777777777777777777777777777777777777777777777777777000
66666666666666660000000000000003777777777777777707777777777777777777777777777777777777777777770000
66666666666666660000000000000333377777777777777700777777777777777777777777777777777777777777700000
66666666666666660000000000006633337777777770777000777777777777777777777777777777777777777777000000
66666666666666666000000000006663333777777700777000077777777777777777777777777777777777777770000000
66666666666666666666666666666666323377777000000077777777777777777777777777777777777777777700000000
66666666666666666666666666666666633337770000000077777777777777777777777777777777777777777000000000
66666666666666666666666666666666663333700000007777777777777777777777777777777777777777770000000000
66666666666666666666666666666666666333700000007777777777777777777777777777777777777777700000000000
66666666666666666666666666666666666600000000777777770000777777777777777777777777777777000000000000
66666666666666666666666666666666666600000000777777700000007777777777777777777777777770000000000000
66666666666666666666666666666666666600000000777777700000000777777777777777777777777700000000000000
66666666666666666666666666666666666600000000007777000000000000777777777777777777777000000000000000
66666666666666666666666666666666666666660000000000000000000000000007777777777777000000000000000000
66666666666666666666666666666666666666660000000000000000000000000000777777777700000000000000000000
66666666666666666666666666666666666666660000000000000000000000000000077777777000000000000000000000
66666666666666666666666666666666666666666000000000000006600000000000007777000000000000000000000000
66666666666666666666666666666666666666666666666666666666666666660000000000000000000000000000000000
66666666666666666666666666666666666666666666666666666666666666660000000000000000000000000000000000
66666666666666666666666666666666666666666666666666666666666666660000000000000000000000000000000000
66666666666666666666666666666666666666666666666666666666666666666000000000000000000000000000000000
66666666666666666666666666666666666666666666666666666666666666666666666666000000000000000000000000
66666666666666666666666666666666666666666666666666666666666666666666666660000000000000000000000000
66666666666666666666666666666666666666666666666666666666666666666666666600000000000000000000000000
66666666666666666666666666666666666666666666666666666666666666666666666000000000000000000000000000
66666666666666666666666666666666666666666666666666666666666666666666660000000000000000000000000000
66666666666666666666666666666666666666666666666666666666666666666666600000000000000000000000000000
66666666666666666666666666666666666666666666666666666666666666666666000000000000000000000000000000
66666666666666666666666666666666666666666666666666666666666666666660000000000000000000000000000000
66666666666666666666666666666666666666666666666666666666666666666600000000000000000000000000000000
66666666666666666666666666666666666666666666666666666666666666666000000000000000000000000000000000
66666666666666666666666666666666666666666666666666666666666666660000000000000000000000000000000000
66666666666666666666666666666666666666666666666666666666666666600000000000000000000000000000000000
66666666666666666666666666666666666666666666666666666666666666000000000000000000000000000000000000
66666666666666666666666666666666666666666666666666666666666660000000000000000000000000000000000000
66666666666666666666666666666666666666666666666666666666666600000000000000000000000000000000000000
66666666666666666666666666666666666666666666666666666666666000000000000000000000000000000000000000
66666666666666666666666666666666666666666666666666666666660000000000000000000000000000000000000000
66666666666666666666666666666666666666666666666666666666600000000000000000000000000000000000000000
66666666666666666666666666666666666666666666666666666666000000000000000000000000000000000000000000
66666666666666666666666666666666666666666666666666666660000000000000000000000000000000000000000000
66666666666666666666666666666666666666666666666666666600000000000000000000000000000000000000000000
66666999999666666666666666666666666666666666666666666000000000000000000000000000000000000000000000
66669999999966666666666666666666666666666666666666660000000000000000000000000000000000000000000000
66699999999996666666666666666666666666666666666666600000000000000000000000000000000000000000000000
06999999999999666666666666666666666666666666666666000000000000000000000000000000000000000000000000
00999999999999999996666666666666666666666666666660000000000000000000000000000000000000000000000000
00099999999999999999666666666666666666666666666600000000000000000000000000000000000000000000000000
00009999999999999999966666999666666666666666666000000000000000000000000000000000000000000000000000
00000999999999999999996669999966666666666666660000000000000000000000000000000000000000000000000000
00000099999999999999999999999996666666666666600000000000000000000000000000000000000000000000000000
00000009999999999999999999999999666666666666000000000000000000000000000000000000000000000000000000
00000000999999999999999999999999966666666660000000000000000000000000000000000000000000000000000000
00000000099999999999999999999999996666666600000000000000000000000000000000000000000000000000000000
00000000009999999999999999999999999666666000000000000000000000000000000000000000000000000000000000
00000000000999999999999999999999999966660000000000000000000000000000000000000000000000000000000000
00000000000099999999999999999999999996600000000000000000000000000000000000000000000000000000000000
00000000000009999999999999999999999999000000000000000000000000000000000000000000000000000000000000
00000000000000999999999999999999999990000000000000000000000000000000000000000000000000000000000000
00000000000000099999999999999999999900000000000000000000000000000000000000000000000000000000000000
00000000000000009999999999999999999000000000000000000000000000000000000000000000000000000000000000
00000000000000000999999999999999990000000000000000000000000000000000000000000000000000000000000000
00000000000000000099999999999999900000000000000000000000000000000000000000000000000000000000000000
00000000000000000009999999999999000000000000000000000000000000000000000000000000000000000000000000
00000000000000000000999999999990000000000000000000000000000000000000000000000000000000000000000000
00000000000000000000099999999900000000000000000000000000000000000000000000000000000000000000000000
00000000000000000000009999999000000000000000000000000000000000000000000000000000000000000000000000
00000000000000000000000999990000000000000000000000000000000000000000000000000000000000000000000000
00000000000000000000000099900000000000000000000000000000000000000000000000000000000000000000000000
00000000000000000000000009000000000000000000000000000000000000000000000000000000000000000000000000
