numOfWalkTilesX: 122 numOfWalkTilesY: 87 topLeftX: 1464 topLeftY: 0
walkTileX: 243 walkTileY: 25 positionX: 1950 positionY: 203 firstPointX: 1928 firstPointY: 184 secondPointX: 1972 secondPointY: 222
00000000000000000000000000000999999999000000000006666666666666666666666666666666888888888888888888888000000000000000000000
00000000000000000000000000009999999999000000000006666666666666666666666666666666688888888888888888888800000000000000000000
00000000000000000000000000099999999990000000000006666666666666666666666666666666668888888888888888888880000000000000000000
00000000000000000000000000999999999990000000000066666666666666666666666666666666666888888888888888888888000000000000000000
00000000000000000000000009999999999900000000000066666666666666666666666666666666666688888888888888888888800000000000000000
00000000000000000000000099999999999000000000000006666666666666666666666666666666666668888888888888888888880000000000000000
00000000000000000000000799999999999000000000000006666666666666666666666666666666666666888888888888888888888000000000000000
00000000000000000000007799999999990000000000000006666666666666666666666666666666666666688888888888888888888800000000000000
00000000000000000000077799999999990000000000000000000666666666666666666666666666666666668888888888888888888880000000000000
00000000000000000000777799999999990000000000000000000066666666666666666666666666666666666888888888888888888888000000000000
00000000000000000007777799999999990000000000000000000006666666666666666666666666666666666688888888888888888888800000000000
00000000000000000077777779999999990000000000000000000006666666666666666666666666666666666668888888888888888888880000000000
00000000000000000777777779999999999999999000000000000000666666666666666666666666666666666666888888888888888888888000000000
00000000000000007777777779999999999999999000000000000000666666666666666666666666666666666666688888888888888888888800000000
00000000000000077777777777999999999999999999900000000066666666666666666666666666666666666666668888888888888888888880000000
00000000000000777777777777999999999999999999900000000666666666666666666666666666666666666666666888888888888888888888000000
00000000000007777777777777999999999999999999900000000066666666666666666666666666666666666666666688888888888888888888800000
00000000000077777777777777799999999999999999000000000066666666666666666666666666666666666666666668888888888888888888880000
00000000000777777777777777799999999999999999000000000000006666666666666666666666666666666666666666888888888888888888888000
00000000007777777777777777779999999999999990000000000000006666666666666666666666666666666666666666688888888888888888888800
00000000077777777777777777779999999999999990000000000000006666666666666666666666666666666666666666668888888888888888888880
00000000777777777777777777777999999999999990000000000000006666666666666666666666666666666666666666666888888888888888888888
00000007777777777777777777777799999999999990000000000000003336666666666666666666666666666666666666666688888888888888888880
00000077777777777777777777777799999999999990000000000000033333666666666666666666666666666666666666666668888888888888888800
00000777777777777777777777777799999999999999999990000000933333366666666666666666666666666666666666666666888888888888888000
00007777777777777777777777777779999999999999999990000099993323336666666666666666666666666666666666666666688888888888880000
00077777777777777777777777777779999999999999999990009999999333333660006666666666666666666666666666666666668888888888800000
00777777777777777777777777777777999999999999999990099999999933333300000006666666666666666666666666666666666888888888000000
07777777777777777777777777777777999999999999999999999999999993333000000000000000666666666666666666666666666688888880000000
77777777777777777777777777777777799999999999999999999999999999333000000000000000066666666666666666666666666668888800000000
07777777777777777777777777777777799999999999999999999999999999990000000000000000066666666666666666666666666666888000000000
00777777777777777777777777777777779999999999999999999999999999900000000000000000066666666666666666666666666666680000000000
00077777777777777777777777777777777999999999999999999999999999000000000000000000000006666666666666666666666666600000000000
00007777777777777777777777777777777999999999999999999999999990000000000000000000000000666666666666666666666666000000000000
00000777777777777777777777777777777799999999999999999999999900000000000000000000000000006666666666666666666660000000000000
00000077777777777777777777777777777779999999999999999999999900000000000000000000000000006666666666666666666600000000000000
00000007777777777777777777777777777777999999999999999999999900000000000000000000000000006666666666666666666000000000000000
00000000777777777777777777777777777777799999999999999999999990000000000990000000000000006666666666666666660000000000000000
00000000077777777777777777777777777777779999999999999999999999000009999999999000000000666666666666666666600000000000000000
00000000007777777777777777777777777777777999999999999999999999999999999999999000000006666666666666666666000000000000000000
00000000000777777777777777777777777777777799999999999999999999999990000999990000000006666666666666666660000000000000000000
00000000000077777777777777777777777777777777999999999999999999999000000009990000000000666666666666666600000000000000000000
00000000000007777777777777777777777777777777799999999999999999999000000009900000000000006666666666666000000000000000000000
00000000000000777777777777777777777777777777777999999999999999999000000009000000000000006666666666660000000000000000000000
00000000000000077777777777777777777777777777777799999999999999999000000000000000000000006666666666600000000000000000000000
00000000000000007777777777777777777777777777777779999999999999999000000000000000000000006666666666000000000000000000000000
00000000000000000777777777777777777777777777777777799999999999999900000090000000000000666666666660000000000000000000000000
00000000000000000077777777777777777777777777777777779999999999999999999990000000000006666666666600000000000000000000000000
00000000000000000007777777777777777777777777777777777799999999999999999990000000006666666666666000000000000000000000000000
00000000000000000000777777777777777777777777777777777777999999999999990000000000000666666666660000000000000000000000000000
00000000000000000000077777777777777777777777777777777777779999999999900000000000000066666666600000000000000000000000000000
00000000000000000000007777777777777777777777777777777777779999999999900000000000000006666666000000000000000000000000000000
00000000000000000000000777777777777777777777777777777777779999999999000000000000000000666660000000000000000000000000000000
00000000000000000000000077777777777777777777777777777777779999999999000000000000000000066600000000000000000000000000000000
00000000000000000000000007777777777777777777777777777777779999999999000000000000000000006000000000000000000000000000000000
00000000000000000000000000777777777777777777777777777777777999999990000000000000000000000000000000000000000000000000000000
00000000000000000000000000077777777777777777777777777777777999999990000000000000000000000000000000000000000000000000000000
00000000000000000000000000007777777777777777777777777777777999999990000000000000000000000000000000000000000000000000000000
00000000000000000000000000000777777777777777777777777777777799999990000000000000000000000000000000000000000000000000000000
00000000000000000000000000000077777777777777777777777777777799999990000000000000000000000000000000000000000000000000000000
00000000000000000000000000000007777777777777777777777777777779999999999990000000000000000000000000000000000000000000000000
00000000000000000000000000000000777777777777777777777777777779999999999990000000000000000000000000000000000000000000000000
00000000000000000000000000000000077777777777777777777777777777999999999990000000000000000000000000000000000000000000000000
00000000000000000000000000000000007777777777777777777777777777799999999999000000000000000000000000000000000000000000000000
00000000000000000000000000000000000777777777777777777777777777799999999990000000000000000000000000000000000000000000000000
00000000000000000000000000000000000077777777777777777777777777779999990000000000000000000000000000000000000000000000000000
00000000000000000000000000000000000007777777777777777777777777777999900000000000000000000000000000000000000000000000000000
00000000000000000000000000000000000000777777777777777777777777777799900000000000000000000000000000000000000000000000000000
00000000000000000000000000000000000000077777777777777777777777777779900000000000000000000000000000000000000000000000000000
00000000000000000000000000000000000000007777777777777777777777777777900000000000000000000000000000000000000000000000000000
00000000000000000000000000000000000000000777777777777777777777777777000000000000000000000000000000000000000000000000000000
00000000000000000000000000000000000000000077777777777777777777777777000000000000000000000000000000000000000000000000000000
00000000000000000000000000000000000000000007777777777777777777777770000000000000000000000000000000000000000000000000000000
00000000000000000000000000000000000000000000777777777777777777777770000000000000000000000000000000000000000000000000000000
00000000000000000000000000000000000000000000077777777777777777777770000000000000000000000000000000000000000000000000000000
00000000000000000000000000000000000000000000007777777777777777777770000000000000000000000000000000000000000000000000000000
00000000000000000000000000000000000000000000000777777777777777777777000000000000000000000000000000000000000000000000000000
00000000000000000000000000000000000000000000000077777777777777777770000000000000000000000000000000000000000000000000000000
00000000000000000000000000000000000000000000000007777777777777777700000000000000000000000000000000000000000000000000000000
00000000000000000000000000000000000000000000000000777777777777777000000000000000000000000000000000000000000000000000000000
00000000000000000000000000000000000000000000000000077777777777770000000000000000000000000000000000000000000000000000000000
00000000000000000000000000000000000000000000000000007777777777700000000000000000000000000000000000000000000000000000000000
00000000000000000000000000000000000000000000000000000777777777000000000000000000000000000000000000000000000000000000000000
00000000000000000000000000000000000000000000000000000077777770000000000000000000000000000000000000000000000000000000000000
00000000000000000000000000000000000000000000000000000007777700000000000000000000000000000000000000000000000000000000000000
00000000000000000000000000000000000000000000000000000000777000000000000000000000000000000000000000000000000000000000000000
00000000000000000000000000000000000000000000000000000000070000000000000000000000000000000000000000000000000000000000000000
